Introduction au SQL avec R
…
players

Le dataframe players contient la liste des joueurs de football ayant participé à la coupe du monde en 2014. Il est parfait pour nous entrainer au SQL.

Vous pouvez le consulter avec la commande :

# Ceci est un commentaire
# La fonction View() commence avec un V majuscule !
View(players)

players

# A tibble: 736 × 9
      id name        birth_date position  team   number played club      captain
   <dbl> <chr>       <chr>      <chr>     <chr>   <dbl>  <dbl> <chr>       <dbl>
 1   325 jefferson   1983-01-02 <NA>      Bresil      1      9 Botafogo        0
 2   378 julio cesar 1979-09-03 Gardien   Bresil     12     80 Toronto …       0
 3   699 victor      1983-01-21 Gardien   Bresil     22      6 Atletico…       0
 4   136 dani alves  1983-05-06 Defenseur Bresil      2     75 Barcelona       0
 5   146 dante       1983-10-18 Defenseur Bresil     13     12 Bayern M…       0
 6   152 david luiz  1987-04-22 Defenseur Bresil      4     36 Chelsea         0
 7   280 henrique    1986-10-14 Defenseur Bresil     15      5 Napoli          0
 8   438 maicon      1981-07-26 Defenseur Bresil     23     72 Roma            0
 9   445 marcelo     1988-05-12 Defenseur Bresil      6     31 Real Mad…       0
10   493 maxwell     1981-08-27 Defenseur Bresil     14      9 Paris Sa…       0
# ℹ 726 more rows
…
